﻿..W................
...................
...................
...................
...................
...................
....H...........K..
...................
.........G.........
...............T...